##### QT PACKAGES #####
qt-sudo 2.0.1-1
qt5-base 5.15.14+kde+r141-1
qt5-base 5.15.14+kde+r141-1.1
qt5-declarative 5.15.14+kde+r28-1.1
qt5-graphicaleffects 5.15.14-1.1
qt5-quickcontrols 5.15.14-1.1
qt5-quickcontrols2 5.15.14+kde+r5-1.1
qt5-svg 5.15.14+kde+r5-1.1
qt5-translations 5.15.14-1
qt5-translations 5.15.14-1
qt5-virtualkeyboard 5.15.14-1.1
qt5ct 1.8-1.1
qt6-5compat 6.7.1-1.1
qt6-base 6.7.1-4
qt6-base 6.7.1-4.1
qt6-declarative 6.7.1-1
qt6-declarative 6.7.1-1.1
qt6-shadertools 6.7.1-1.1
qt6-svg 6.7.1-1.1
qt6-tools 6.7.1-3.1
qt6-translations 6.7.1-1
qt6-translations 6.7.1-1
qt6-wayland 6.7.1-1.1
qtermwidget 2.0.0-2.1